Create Duration Suitability Rating Curve for a streamgage (scaled to prediction point by drainage area and precipitation) — habitat_drc_weighted • habistat
…
wy_group
Either "Dry" or "Wet" for water year type scenario

gradient
For rearing, either "Valley Foothill" (default) or "Valley Lowland"

    Value

    A tibble with columns for flow (flow_cfs) and duration habitat suitability index (durhsi)

    Examples

habitat_drc_weighted("FSB", habitat_type="rearing", gradient = "Valley Foothill", reach = 7978069)
#> # A tibble: 150 × 2
#>    flow_cfs durhsi
#>       <dbl>  <dbl>
#>  1      100   0.66
#>  2      200   0.66
#>  3      300   0.66
#>  4      400   0.66
#>  5      500   0.66
#>  6      600   0.66
#>  7      700   0.66
#>  8      800   0.66
#>  9      900   0.66
#> 10     1000   0.66
#> # ℹ 140 more rows
…
